Código 4.1
…
Con 180 mregistros y tres columnas o variables :

ID : identificación del estudiante

CAR : programa en el que se encuentra matriculado

NF : nota final de matemáticas fundamentales

Como seleccionar una muestra aleatoria de 20 estudiantes:

idm=sample(1:80, 30)
muestra =base_muestreo[idm,]
muestra

# A tibble: 30 × 3
      ID CAR      NF
   <int> <chr> <dbl>
 1    76 BIO     3.4
 2    62 CIV     3.6
 3     7 ELE     3.1
 4    47 MAT     4.3
 5    78 IND     3.7
 6    27 SIS     3.8
 7    37 MAT     3.9
 8    35 IND     3.5
 9    23 IND     3.8
10    58 IND     0.7
# ℹ 20 more rows
…
